…
### Exercise 9

California and Texas have the most, at 403 and 200, respectively.

``` r
dn %>%
  count(state) %>%
  inner_join(states, by = c("state" = "abbreviation")) %>%
  arrange(desc(n))
```

    ## # A tibble: 51 × 4
    ##    state     n name            area
    ##    <chr> <int> <chr>          <dbl>
    ##  1 CA      403 California   163695.
    ##  2 TX      200 Texas        268596.
    ##  3 FL      140 Florida       65758.
    ##  4 AZ       83 Arizona      113990.
    ##  5 IL       56 Illinois      57914.
    ##  6 NY       56 New York      54555.
    ##  7 WA       49 Washington    71298.
    ##  8 OH       44 Ohio          44826.
    ##  9 MO       42 Missouri      69707.
    ## 10 PA       40 Pennsylvania  46054.
    ## # ℹ 41 more rows
…
dn_state <- dn_state %>%
  mutate(dn_count = n / area)

dn_state <- dn_state %>%
  mutate(dn_per1kmiles = dn_count * 1000)

dn_state %>%
  arrange(desc(dn_per1kmiles))
```

    ## # A tibble: 51 × 6
    ##    state     n name                     area dn_count dn_per1kmiles
    ##    <chr> <int> <chr>                   <dbl>    <dbl>         <dbl>
    ##  1 DC        2 District of Columbia     68.3 0.0293          29.3  
    ##  2 RI        5 Rhode Island           1545.  0.00324          3.24 
    ##  3 CA      403 California           163695.  0.00246          2.46 
    ##  4 CT       12 Connecticut            5543.  0.00216          2.16 
    ##  5 FL      140 Florida               65758.  0.00213          2.13 
    ##  6 MD       26 Maryland              12406.  0.00210          2.10 
    ##  7 NJ       10 New Jersey             8723.  0.00115          1.15 
    ##  8 NY       56 New York              54555.  0.00103          1.03 
    ##  9 IN       37 Indiana               36420.  0.00102          1.02 
    ## 10 OH       44 Ohio                  44826.  0.000982         0.982
    ## # ℹ 41 more rows
…
lq_state <- lq_state %>%
  mutate(lq_count = n / area)

lq_state <- lq_state %>%
  mutate(lq_per1kmiles = lq_count * 1000) 

lq_state %>%
  arrange(desc(lq_per1kmiles))
```

    ## # A tibble: 48 × 6
    ##    state     n name             area lq_count lq_per1kmiles
    ##    <chr> <int> <chr>           <dbl>    <dbl>         <dbl>
    ##  1 RI        2 Rhode Island    1545. 0.00129          1.29 
    ##  2 FL       74 Florida        65758. 0.00113          1.13 
    ##  3 CT        6 Connecticut     5543. 0.00108          1.08 
    ##  4 MD       13 Maryland       12406. 0.00105          1.05 
    ##  5 TX      237 Texas         268596. 0.000882         0.882
    ##  6 TN       30 Tennessee      42144. 0.000712         0.712
    ##  7 GA       41 Georgia        59425. 0.000690         0.690
    ##  8 NJ        5 New Jersey      8723. 0.000573         0.573
    ##  9 MA        6 Massachusetts  10554. 0.000568         0.568
    ## 10 LA       28 Louisiana      52378. 0.000535         0.535
    ## # ℹ 38 more rows
…
